1 - Traitement des séries temporelles sous R – CEPE AST 2026
…
Calculer les moyennes trimestrielles de chaque série de mts_tsibble et ipi_tsibble.

Mise en gardeIndice

Il faut utiliser à la fois index_by et group_by_key().

AstuceSolution

library(dplyr)
mts_tsibble %>%  
    group_by_key() %>% 
    index_by(date = ~ yearquarter(.)) %>%
    summarise(moy = mean(value))

# A tsibble: 102 x 3 [1Q]
# Key:       key [3]
   key         date    moy
   <chr>      <qtr>  <dbl>
 1 Series 1 1961 Q1 -0.426
 2 Series 1 1961 Q2  0.368
 3 Series 1 1961 Q3  0.601
 4 Series 1 1961 Q4  0.532
 5 Series 1 1962 Q1 -0.570
 6 Series 1 1962 Q2  0.294
 7 Series 1 1962 Q3  0.778
 8 Series 1 1962 Q4 -0.378
 9 Series 1 1963 Q1  0.136
10 Series 1 1963 Q2 -0.510
# ℹ 92 more rows
…
NoteExercice

En utilisant la fonction dplyr::full_join(), créer un objet tsibble contenant les valeurs de mts_tsibble et ipi_tsibble.

Comparer les résultats avec dplyr::left_join() et dplyr::right_join().

Quelle serait l’équivalent de ts.intersect() et ts.union() ?

AstuceSolution

mts_tsibble %>%  full_join(ipi_tsibble, by = "index") # comme ts.union()

# A tsibble: 358 x 4 [1M]
# Key:       key [4]
      index key      value.x value.y
      <mth> <chr>      <dbl>   <dbl>
 1 1961 Jan Series 1  -0.626      NA
 2 1961 Feb Series 1   0.184      NA
 3 1961 Mar Series 1  -0.836      NA
 4 1961 Apr Series 1   1.60       NA
 5 1961 May Series 1   0.330      NA
 6 1961 Jun Series 1  -0.820      NA
 7 1961 Jul Series 1   0.487      NA
 8 1961 Aug Series 1   0.738      NA
 9 1961 Sep Series 1   0.576      NA
10 1961 Oct Series 1  -0.305      NA
# ℹ 348 more rows

mts_tsibble %>%  left_join(ipi_tsibble, by = "index")

# A tsibble: 300 x 4 [1M]
# Key:       key [3]
      index key      value.x value.y
      <mth> <chr>      <dbl>   <dbl>
 1 1961 Jan Series 1  -0.626      NA
 2 1961 Feb Series 1   0.184      NA
 3 1961 Mar Series 1  -0.836      NA
 4 1961 Apr Series 1   1.60       NA
 5 1961 May Series 1   0.330      NA
 6 1961 Jun Series 1  -0.820      NA
 7 1961 Jul Series 1   0.487      NA
 8 1961 Aug Series 1   0.738      NA
 9 1961 Sep Series 1   0.576      NA
10 1961 Oct Series 1  -0.305      NA
# ℹ 290 more rows

mts_tsibble %>%  right_join(ipi_tsibble, by = "index")

# A tsibble: 58 x 4 [1M]
# Key:       key [1]
      index key   value.x value.y
      <mth> <chr>   <dbl>   <dbl>
 1 2015 Jan <NA>       NA    99  
 2 2015 Feb <NA>       NA    99.4
 3 2015 Mar <NA>       NA    99.7
 4 2015 Apr <NA>       NA    99.4
 5 2015 May <NA>       NA   101. 
 6 2015 Jun <NA>       NA   100  
 7 2015 Jul <NA>       NA    98.7
 8 2015 Aug <NA>       NA   100. 
 9 2015 Sep <NA>       NA   101. 
10 2015 Oct <NA>       NA   101. 
# ℹ 48 more rows

mts_tsibble %>%  inner_join(ipi_tsibble, by = "index") # ts.intersect

# A tsibble: 0 x 4 [?]
# Key:       key [0]
# ℹ 4 variables: index <mth>, key <chr>, value.x <dbl>, value.y <dbl>

Les index vont être des dates : on peut facilement les manipuler en utilisant le package lubdridate. Par exemple pour ne que garder que les dates à partir de l’année 2000 :

library(lubridate)
ipi_tsibble %>% 
    filter(year(index) >= 2000)

# A tsibble: 58 x 2 [1M]
      index value
      <mth> <dbl>
 1 2015 Jan  99  
 2 2015 Feb  99.4
 3 2015 Mar  99.7
 4 2015 Apr  99.4
 5 2015 May 101. 
 6 2015 Jun 100  
 7 2015 Jul  98.7
 8 2015 Aug 100. 
 9 2015 Sep 101. 
10 2015 Oct 101. 
# ℹ 48 more rows

Pour extraire les données à partir d’un certain mois (mars 2018 par exemple) on peut utiliser la fonction tsibble::make_yearmonth() :

ipi_tsibble %>% 
    filter(index >= make_yearmonth(2000,6))

# A tsibble: 58 x 2 [1M]
      index value
      <mth> <dbl>
 1 2015 Jan  99  
 2 2015 Feb  99.4
 3 2015 Mar  99.7
 4 2015 Apr  99.4
 5 2015 May 101. 
 6 2015 Jun 100  
 7 2015 Jul  98.7
 8 2015 Aug 100. 
 9 2015 Sep 101. 
10 2015 Oct 101. 
# ℹ 48 more rows

NoteExercice

À l’aide du package lubridate, extraire toutes les données du mois de janvier et juillet de l’objet ipi_tsibble.

Mise en gardeIndice

Regarder ce que donne

ipi_tsibble %>% mutate(month = lubridate::month(index))

# A tsibble: 58 x 3 [1M]
      index value month
      <mth> <dbl> <dbl>
 1 2015 Jan  99       1
 2 2015 Feb  99.4     2
 3 2015 Mar  99.7     3
 4 2015 Apr  99.4     4
 5 2015 May 101.      5
 6 2015 Jun 100       6
 7 2015 Jul  98.7     7
 8 2015 Aug 100.      8
 9 2015 Sep 101.      9
10 2015 Oct 101.     10
# ℹ 48 more rows
…
